/
/data/rssmap.html
/flink.php
/data/sitemap.html
/member/index_do.php?fmdo=user&dopost=regnew
/templets/default/images/logo.gif
/member/templets/images/dfboy.png
/tags.php
/flink_add.php
/plus/heightsearch.php
/member/resetpassword.php
/data/flink.php
/data/flink_add.php
/member/templets/images/login_logo.gif
/member/vdimgck.php
/member/
/member/login.php
/member/templets/images/530x56.gif
/templets/default/images/top.gif
/member/flink.php
/member/flink_add.php
/templets/default/images/flink.php
/templets/default/images/flink_add.php